Metoda 3: (02,100002)  Czas = 16 ms.
Metoda 3: (02,200002)  Czas = 31 ms.
Metoda 3: (02,300002)  Czas = 31 ms.
Metoda 3: (02,400002)  Czas = 31 ms.
Metoda 3: (02,500002)  Czas = 47 ms.
Metoda 3: (02,600002)  Czas = 62 ms.
Metoda 3: (02,700002)  Czas = 63 ms.
Metoda 3: (02,800002)  Czas = 78 ms.
Metoda 3: (02,900002)  Czas = 93 ms.
Metoda 3: (02,1000002)  Czas = 109 ms.
Metoda 3: (02,1100002)  Czas = 109 ms.
Metoda 3: (02,1200002)  Czas = 124 ms.
Metoda 3: (02,1300002)  Czas = 140 ms.
Metoda 3: (02,1400002)  Czas = 140 ms.
Metoda 3: (02,1500002)  Czas = 156 ms.
Metoda 3: (02,1600002)  Czas = 172 ms.
Metoda 3: (02,1700002)  Czas = 171 ms.
Metoda 3: (02,1800002)  Czas = 187 ms.
Metoda 3: (02,1900002)  Czas = 203 ms.
Metoda 3: (02,2000002)  Czas = 218 ms.
Metoda 3: (02,2100002)  Czas = 219 ms.
Metoda 3: (02,2200002)  Czas = 234 ms.
Metoda 3: (02,2300002)  Czas = 250 ms.
Metoda 3: (02,2400002)  Czas = 265 ms.
Metoda 3: (02,2500002)  Czas = 281 ms.
Metoda 3: (02,2600002)  Czas = 281 ms.
Metoda 3: (02,2700002)  Czas = 296 ms.
Metoda 3: (02,2800002)  Czas = 312 ms.
Metoda 3: (02,2900002)  Czas = 328 ms.
Metoda 3: (02,3000002)  Czas = 343 ms.
Metoda 3: (02,3100002)  Czas = 359 ms.
Metoda 3: (02,3200002)  Czas = 359 ms.
Metoda 3: (02,3300002)  Czas = 375 ms.
Metoda 3: (02,3400002)  Czas = 375 ms.
Metoda 3: (02,3500002)  Czas = 406 ms.
Metoda 3: (02,3600002)  Czas = 405 ms.
Metoda 3: (02,3700002)  Czas = 421 ms.
Metoda 3: (02,3800002)  Czas = 436 ms.
Metoda 3: (02,3900002)  Czas = 452 ms.
Metoda 3: (02,4000002)  Czas = 453 ms.
Metoda 3: (02,4100002)  Czas = 468 ms.
Metoda 3: (02,4200002)  Czas = 468 ms.
Metoda 3: (02,4300002)  Czas = 484 ms.
Metoda 3: (02,4400002)  Czas = 499 ms.
Metoda 3: (02,4500002)  Czas = 515 ms.
Metoda 3: (02,4600002)  Czas = 531 ms.
Metoda 3: (02,4700002)  Czas = 530 ms.
Metoda 3: (02,4800002)  Czas = 562 ms.
Metoda 3: (02,4900002)  Czas = 562 ms.
Metoda 3: (02,5000002)  Czas = 577 ms.
Metoda 3: (02,5100002)  Czas = 593 ms.
Metoda 3: (02,5200002)  Czas = 609 ms.
Metoda 3: (02,5300002)  Czas = 608 ms.
Metoda 3: (02,5400002)  Czas = 624 ms.
Metoda 3: (02,5500002)  Czas = 639 ms.
Metoda 3: (02,5600002)  Czas = 655 ms.
Metoda 3: (02,5700002)  Czas = 671 ms.
Metoda 3: (02,5800002)  Czas = 671 ms.
Metoda 3: (02,5900002)  Czas = 686 ms.
Metoda 3: (02,6000002)  Czas = 702 ms.
Metoda 3: (02,6100002)  Czas = 717 ms.
Metoda 3: (02,6200002)  Czas = 717 ms.
Metoda 3: (02,6300002)  Czas = 749 ms.
Metoda 3: (02,6400002)  Czas = 749 ms.
Metoda 3: (02,6500002)  Czas = 765 ms.
Metoda 3: (02,6600002)  Czas = 780 ms.
Metoda 3: (02,6700002)  Czas = 780 ms.
Metoda 3: (02,6800002)  Czas = 796 ms.
Metoda 3: (02,6900002)  Czas = 811 ms.
Metoda 3: (02,7000002)  Czas = 827 ms.
Metoda 3: (02,7100002)  Czas = 843 ms.
Metoda 3: (02,7200002)  Czas = 858 ms.
Metoda 3: (02,7300002)  Czas = 858 ms.
Metoda 3: (02,7400002)  Czas = 874 ms.
Metoda 3: (02,7500002)  Czas = 889 ms.
Metoda 3: (02,7600002)  Czas = 890 ms.
Metoda 3: (02,7700002)  Czas = 905 ms.
Metoda 3: (02,7800002)  Czas = 921 ms.
Metoda 3: (02,7900002)  Czas = 936 ms.
Metoda 3: (02,8000002)  Czas = 952 ms.
Metoda 3: (02,8100002)  Czas = 967 ms.
Metoda 3: (02,8200002)  Czas = 968 ms.
Metoda 3: (02,8300002)  Czas = 983 ms.
Metoda 3: (02,8400002)  Czas = 998 ms.
Metoda 3: (02,8500002)  Czas = 1014 ms.
Metoda 3: (02,8600002)  Czas = 1029 ms.
Metoda 3: (02,8700002)  Czas = 1030 ms.
Metoda 3: (02,8800002)  Czas = 1061 ms.
Metoda 3: (02,8900002)  Czas = 1061 ms.
Metoda 3: (02,9000002)  Czas = 1108 ms.
Metoda 3: (02,9100002)  Czas = 1108 ms.
Metoda 3: (02,9200002)  Czas = 1107 ms.
Metoda 3: (02,9300002)  Czas = 1107 ms.
Metoda 3: (02,9400002)  Czas = 1124 ms.
Metoda 3: (02,9500002)  Czas = 1139 ms.
Metoda 3: (02,9600002)  Czas = 1154 ms.
Metoda 3: (02,9700002)  Czas = 1170 ms.
Metoda 3: (02,9800002)  Czas = 1170 ms.
Metoda 3: (02,9900002)  Czas = 1201 ms.
Metoda 3: (02,10000002)  Czas = 1201 ms.
Metoda 3: (02,10100002)  Czas = 1216 ms.
Metoda 3: (02,10200002)  Czas = 1216 ms.
Metoda 3: (02,10300002)  Czas = 1248 ms.
Metoda 3: (02,10400002)  Czas = 1248 ms.
Metoda 3: (02,10500002)  Czas = 1264 ms.
Metoda 3: (02,10600002)  Czas = 1279 ms.
Metoda 3: (02,10700002)  Czas = 1279 ms.
